riscv_core.vcd
$date
	Thu Feb 26 21:25:38 2026
$end
$version
	Icarus Verilog
$end
$timescale
	1ps
$end
$scope module pipeline_tb $end
$var reg 1 ! clk $end
$var reg 1 " rst $end
$scope module dut $end
$var wire 1 ! clk $end
$var wire 1 " rst $end
$var wire 3 # funct3M [2:0] $end
$var wire 3 $ funct3E [2:0] $end
$var wire 32 % WriteDataM [31:0] $end
$var wire 1 & StallF $end
$var wire 1 ' StallD $end
$var wire 5 ( Rs2_D [4:0] $end
$var wire 5 ) Rs1_D [4:0] $end
$var wire 32 * ResultW [31:0] $end
$var wire 1 + ResultSrcW $end
$var wire 1 , ResultSrcM $end
$var wire 1 - ResultSrcE $end
$var wire 1 . RegWriteW $end
$var wire 1 / RegWriteM $end
$var wire 1 0 RegWriteE $end
$var wire 32 1 ReadDataW [31:0] $end
$var wire 5 2 RS2_E [4:0] $end
$var wire 5 3 RS1_E [4:0] $end
$var wire 5 4 RD_M [4:0] $end
$var wire 5 5 RD_E [4:0] $end
$var wire 5 6 RDW [4:0] $end
$var wire 32 7 RD2_E [31:0] $end
$var wire 32 8 RD1_E [31:0] $end
$var wire 32 9 PCTargetE [31:0] $end
$var wire 1 : PCSrcE $end
$var wire 32 ; PCPlus4W [31:0] $end
$var wire 32 < PCPlus4M [31:0] $end
$var wire 32 = PCPlus4E [31:0] $end
$var wire 32 > PCPlus4D [31:0] $end
$var wire 32 ? PCE [31:0] $end
$var wire 32 @ PCD [31:0] $end
$var wire 1 A MemWriteM $end
$var wire 1 B MemWriteE $end
$var wire 1 C JumpE $end
$var wire 1 D JalrE $end
$var wire 32 E InstrD [31:0] $end
$var wire 32 F Imm_Ext_E [31:0] $end
$var wire 2 G ForwardBE [1:0] $end
$var wire 2 H ForwardAE [1:0] $end
$var wire 1 I FlushE $end
$var wire 1 J FlushD $end
$var wire 1 K BranchE $end
$var wire 32 L ALU_ResultW [31:0] $end
$var wire 32 M ALU_ResultM [31:0] $end
$var wire 1 N ALUSrcE $end
$var wire 4 O ALUControlE [3:0] $end
$scope module Decode1 $end
$var wire 1 ! clk $end
$var wire 1 " rst $end
$var wire 3 P funct3D [2:0] $end
$var wire 1 ' StallD $end
$var wire 5 Q Rs2_D [4:0] $end
$var wire 5 R Rs1_D [4:0] $end
$var wire 32 S ResultW [31:0] $end
$var wire 1 T ResultSrcD $end
$var wire 1 . RegWriteW $end
$var wire 1 U RegWriteD $end
$var wire 5 V RDW [4:0] $end
$var wire 32 W RD2_D [31:0] $end
$var wire 32 X RD1_D [31:0] $end
$var wire 32 Y PCPlus4D [31:0] $end
$var wire 32 Z PCD [31:0] $end
$var wire 1 [ MemWriteD $end
$var wire 1 \ JumpD $end
$var wire 1 ] JalrD $end
$var wire 32 ^ InstrD [31:0] $end
$var wire 32 _ Imm_Ext_D [31:0] $end
$var wire 3 ` ImmSrcD [2:0] $end
$var wire 1 I FlushE $end
$var wire 1 a BranchD $end
$var wire 1 b ALUSrcD $end
$var wire 4 c ALUControlD [3:0] $end
$var reg 4 d ALUControlE [3:0] $end
$var reg 1 N ALUSrcE $end
$var reg 1 K BranchE $end
$var reg 32 e Imm_Ext_E [31:0] $end
$var reg 1 D JalrE $end
$var reg 1 C JumpE $end
$var reg 1 B MemWriteE $end
$var reg 32 f PCE [31:0] $end
$var reg 32 g PCPlus4E [31:0] $end
$var reg 32 h RD1_E [31:0] $end
$var reg 32 i RD2_E [31:0] $end
$var reg 5 j RD_E [4:0] $end
$var reg 5 k RS1_E [4:0] $end
$var reg 5 l RS2_E [4:0] $end
$var reg 1 0 RegWriteE $end
$var reg 1 - ResultSrcE $end
$var reg 3 m funct3E [2:0] $end
$scope module Control_Unit $end
$var wire 7 n Op [6:0] $end
$var wire 3 o funct3 [2:0] $end
$var wire 7 p funct7 [6:0] $end
$var wire 1 T ResultSrc $end
$var wire 1 U RegWrite $end
$var wire 1 [ MemWrite $end
$var wire 1 \ Jump $end
$var wire 1 ] Jalr $end
$var wire 3 q ImmSrc [2:0] $end
$var wire 1 a Branch $end
$var wire 1 b ALUSrc $end
$var wire 2 r ALUOp [1:0] $end
$var wire 4 s ALUControl [3:0] $end
$scope module ALU_Decoder2 $end
$var wire 3 t funct3 [2:0] $end
$var wire 7 u funct7 [6:0] $end
$var wire 7 v op [6:0] $end
$var wire 2 w ALUOp [1:0] $end
$var reg 4 x ALUControl [3:0] $end
$upscope $end
$scope module Main_Decoder1 $end
$var wire 7 y Op [6:0] $end
$var reg 2 z ALUOp [1:0] $end
$var reg 1 b ALUSrc $end
$var reg 1 a Branch $end
$var reg 3 { ImmSrc [2:0] $end
$var reg 1 ] Jalr $end
$var reg 1 \ Jump $end
$var reg 1 [ MemWrite $end
$var reg 1 U RegWrite $end
$var reg 1 T ResultSrc $end
$upscope $end
$upscope $end
$scope module Reg_File $end
$var wire 5 | A1 [4:0] $end
$var wire 5 } A2 [4:0] $end
$var wire 1 ! clk $end
$var wire 1 " rst $end
$var wire 1 . WE3 $end
$var wire 32 ~ WD3 [31:0] $end
$var wire 32 !" RD2 [31:0] $end
$var wire 32 "" RD1 [31:0] $end
$var wire 5 #" A3 [4:0] $end
$var integer 32 $" i [31:0] $end
$upscope $end
$scope module Sign_Ext $end
$var wire 3 %" ImmSrc [2:0] $end
$var wire 32 &" In [31:0] $end
$var reg 32 '" Imm_Ext [31:0] $end
$upscope $end
$upscope $end
$scope module Execute $end
$var wire 4 (" ALUControlE [3:0] $end
$var wire 1 N ALUSrcE $end
$var wire 1 K BranchE $end
$var wire 32 )" Imm_Ext_E [31:0] $end
$var wire 1 D JalrE $end
$var wire 1 C JumpE $end
$var wire 1 B MemWriteE $end
$var wire 32 *" PCE [31:0] $end
$var wire 32 +" PCPlus4E [31:0] $end
$var wire 1 : PCSrcE $end
$var wire 32 ," RD1_E [31:0] $end
$var wire 32 -" RD2_E [31:0] $end
$var wire 5 ." RD_E [4:0] $end
$var wire 1 0 RegWriteE $end
$var wire 1 - ResultSrcE $end
$var wire 1 ! clk $end
$var wire 3 /" funct3E [2:0] $end
$var wire 1 " rst $end
$var wire 1 0" Zero $end
$var wire 1 1" TakeBranch $end
$var wire 32 2" SrcB_Forwarded [31:0] $end
$var wire 32 3" SrcB [31:0] $end
$var wire 32 4" SrcA [31:0] $end
$var wire 32 5" ResultW [31:0] $end
$var wire 32 6" PCTargetE [31:0] $end
$var wire 1 7" Negative $end
$var wire 2 8" ForwardB_E [1:0] $end
$var wire 2 9" ForwardA_E [1:0] $end
$var wire 32 :" ALU_ResultM [31:0] $end
$var wire 32 ;" ALUResult [31:0] $end
$var reg 32 <" ALU_ResultM_out [31:0] $end
$var reg 1 A MemWriteM $end
$var reg 32 =" PCPlus4M [31:0] $end
$var reg 5 >" RD_M [4:0] $end
$var reg 1 / RegWriteM $end
$var reg 1 , ResultSrcM $end
$var reg 32 ?" WriteDataM [31:0] $end
$var reg 3 @" funct3M [2:0] $end
$scope module ALU_Unit $end
$var wire 32 A" A [31:0] $end
$var wire 4 B" ALUControl [3:0] $end
$var wire 32 C" B [31:0] $end
$var wire 1 D" Carry $end
$var wire 1 E" OverFlow $end
$var wire 1 0" Zero $end
$var wire 1 7" Negative $end
$var reg 32 F" Result [31:0] $end
$upscope $end
$upscope $end
$scope module Fetch $end
$var wire 32 G" PCD [31:0] $end
$var wire 32 H" PCPlus4D [31:0] $end
$var wire 1 : PCSrcE $end
$var wire 32 I" PCTargetE [31:0] $end
$var wire 1 ! clk $end
$var wire 1 " rst $end
$var wire 1 & StallF $end
$var wire 1 ' StallD $end
$var wire 32 J" PC_F [31:0] $end
$var wire 32 K" PCPlus4F [31:0] $end
$var wire 32 L" PCF [31:0] $end
$var wire 32 M" InstrF [31:0] $end
$var wire 32 N" InstrD [31:0] $end
$var wire 1 J FlushD $end
$var reg 32 O" InstrD_reg [31:0] $end
$var reg 32 P" PCD_reg [31:0] $end
$var reg 32 Q" PCPlus4D_reg [31:0] $end
$scope module IM $end
$var wire 1 " rst $end
$var wire 32 R" RD [31:0] $end
$var wire 32 S" A [31:0] $end
$var integer 32 T" i [31:0] $end
$upscope $end
$scope module PC $end
$var wire 1 ! clk $end
$var wire 1 " rst $end
$var wire 1 & StallF $end
$var wire 32 U" PC_Next [31:0] $end
$var reg 32 V" PC [31:0] $end
$upscope $end
$scope module PC_Add $end
$var wire 32 W" a [31:0] $end
$var wire 32 X" b [31:0] $end
$var wire 32 Y" c [31:0] $end
$upscope $end
$scope module PC_Mux $end
$var wire 32 Z" a [31:0] $end
$var wire 32 [" b [31:0] $end
$var wire 1 : s $end
$var wire 32 \" c [31:0] $end
$upscope $end
$upscope $end
$scope module Forwarding_block $end
$var wire 1 : PCSrcE $end
$var wire 5 ]" RD_E [4:0] $end
$var wire 5 ^" RD_M [4:0] $end
$var wire 1 0 RegWriteE $end
$var wire 1 / RegWriteM $end
$var wire 1 - ResultSrcE $end
$var wire 5 _" Rs1_D [4:0] $end
$var wire 5 `" Rs1_E [4:0] $end
$var wire 5 a" Rs2_D [4:0] $end
$var wire 5 b" Rs2_E [4:0] $end
$var wire 1 c" lwStall $end
$var wire 1 " rst $end
$var wire 1 & StallF $end
$var wire 1 ' StallD $end
$var wire 1 . RegWriteW $end
$var wire 5 d" RD_W [4:0] $end
$var wire 2 e" ForwardBE [1:0] $end
$var wire 2 f" ForwardAE [1:0] $end
$var wire 1 I FlushE $end
$var wire 1 J FlushD $end
$upscope $end
$scope module Memory $end
$var wire 32 g" ALU_ResultM [31:0] $end
$var wire 32 h" ALU_ResultW [31:0] $end
$var wire 1 A MemWriteM $end
$var wire 32 i" PCPlus4M [31:0] $end
$var wire 32 j" PCPlus4W [31:0] $end
$var wire 5 k" RD_M [4:0] $end
$var wire 5 l" RD_W [4:0] $end
$var wire 32 m" ReadDataW [31:0] $end
$var wire 1 / RegWriteM $end
$var wire 1 . RegWriteW $end
$var wire 1 , ResultSrcM $end
$var wire 1 + ResultSrcW $end
$var wire 32 n" WriteDataM [31:0] $end
$var wire 1 ! clk $end
$var wire 3 o" funct3M [2:0] $end
$var wire 1 " rst $end
$var wire 2 p" byte_offset [1:0] $end
$var wire 32 q" ReadDataM [31:0] $end
$var reg 32 r" ALU_ResultM_r [31:0] $end
$var reg 32 s" FormattedReadDataM [31:0] $end
$var reg 32 t" PCPlus4M_r [31:0] $end
$var reg 5 u" RD_M_r [4:0] $end
$var reg 32 v" ReadDataM_r [31:0] $end
$var reg 1 . RegWriteM_r $end
$var reg 1 + ResultSrcM_r $end
$var reg 4 w" WE_Mask [3:0] $end
$scope module dmem $end
$var wire 32 x" A [31:0] $end
$var wire 32 y" WD [31:0] $end
$var wire 4 z" WE [3:0] $end
$var wire 1 ! clk $end
$var wire 1 " rst $end
$var wire 32 {" RD [31:0] $end
$var integer 32 |" i [31:0] $end
$upscope $end
$upscope $end
$scope module WriteBack $end
$var wire 32 }" ALU_ResultW [31:0] $end
$var wire 32 ~" PCPlus4W [31:0] $end
$var wire 32 !# ReadDataW [31:0] $end
$var wire 1 + ResultSrcW $end
$var wire 1 ! clk $end
$var wire 1 " rst $end
$var wire 32 "# ResultW [31:0] $end
$scope module result_mux $end
$var wire 32 ## a [31:0] $end
$var wire 32 $# b [31:0] $end
$var wire 1 + s $end
$var wire 32 %# c [31:0] $end
$upscope $end
$upscope $end
$upscope $end
$upscope $end
$enddefinitions $end
$comment Show the parameter values. $end
$dumpall
$end
#0
$dumpvars
b0 %#
b0 $#
b0 ##
b0 "#
b0 !#
b0 ~"
b0 }"
b1000000000000 |"
b0 {"
b0 z"
b0 y"
b0 x"
b0 w"
b0 v"
b0 u"
b0 t"
b0 s"
b0 r"
b0 q"
b0 p"
b0 o"
b0 n"
b0 m"
b0 l"
b0 k"
b0 j"
b0 i"
b0 h"
b0 g"
b0 f"
b0 e"
b0 d"
0c"
b0 b"
b0 a"
b0 `"
b0 _"
b0 ^"
b0 ]"
b100 \"
b0 ["
b100 Z"
b100 Y"
b100 X"
b0 W"
b0 V"
b100 U"
b10000000000 T"
b0 S"
b0 R"
b0 Q"
b0 P"
b0 O"
b0 N"
b0 M"
b0 L"
b100 K"
b100 J"
b0 I"
b0 H"
b0 G"
b0 F"
0E"
0D"
b0 C"
b0 B"
b0 A"
b0 @"
b0 ?"
b0 >"
b0 ="
b0 <"
b0 ;"
b0 :"
b0 9"
b0 8"
07"
b0 6"
b0 5"
b0 4"
b0 3"
b0 2"
11"
10"
b0 /"
b0 ."
b0 -"
b0 ,"
b0 +"
b0 *"
b0 )"
b0 ("
b0 '"
b0 &"
b0 %"
b100000 $"
b0 #"
b0 ""
b0 !"
b0 ~
b0 }
b0 |
b0 {
b0 z
b0 y
b0 x
b0 w
b0 v
b0 u
b0 t
b0 s
b0 r
b0 q
b0 p
b0 o
b0 n
b0 m
b0 l
b0 k
b0 j
b0 i
b0 h
b0 g
b0 f
b0 e
b0 d
b0 c
0b
0a
b0 `
b0 _
b0 ^
0]
0\
0[
b0 Z
b0 Y
b0 X
b0 W
b0 V
0U
0T
b0 S
b0 R
b0 Q
b0 P
b0 O
0N
b0 M
b0 L
0K
0J
0I
b0 H
b0 G
b0 F
b0 E
0D
0C
0B
0A
b0 @
b0 ?
b0 >
b0 =
b0 <
b0 ;
0:
b0 9
b0 8
b0 7
b0 6
b0 5
b0 4
b0 3
b0 2
b0 1
00
0/
0.
0-
0,
0+
b0 *
b0 )
b0 (
0'
0&
b0 %
b0 $
b0 #
0"
0!
$end
#5000
1!
#10000
0!
#15000
1!
#20000
b111111110000000000000100010011 M"
b111111110000000000000100010011 R"
0!
1"
#25000
b10 r
b10 w
b10 z
1b
1U
b1001100000000000000011101111 M"
b1001100000000000000011101111 R"
b11100 }
b11111 p
b11111 u
b10011 n
b10011 v
b10011 y
b11100 (
b11100 Q
b11100 a"
b1111111100 _
b1111111100 '"
b1000 J"
b1000 U"
b1000 \"
b100 >
b100 Y
b100 H"
b100 Q"
b111111110000000000000100010011 E
b111111110000000000000100010011 ^
b111111110000000000000100010011 &"
b111111110000000000000100010011 N"
b111111110000000000000100010011 O"
b1000 K"
b1000 Y"
b1000 Z"
b100 L"
b100 S"
b100 V"
b100 W"
1!
#30000
0!
#35000
01"
b1101111 M"
b1101111 R"
1\
b11 `
b11 q
b11 {
b11 %"
b0 r
b0 w
b0 z
0b
1U
00"
b1111111100 ;"
b1111111100 F"
b1100 J"
b1100 U"
b1100 \"
b11000 }
b100 p
b100 u
b1101111 n
b1101111 v
b1101111 y
b11000 (
b11000 Q
b11000 a"
b10011000 _
b10011000 '"
b1111111100 9
b1111111100 6"
b1111111100 I"
b1111111100 ["
b1111111100 3"
b1111111100 C"
b1100 K"
b1100 Y"
b1100 Z"
b1000 L"
b1000 S"
b1000 V"
b1000 W"
b1000 >
b1000 Y
b1000 H"
b1000 Q"
b100 @
b100 Z
b100 G"
b100 P"
b1001100000000000000011101111 E
b1001100000000000000011101111 ^
b1001100000000000000011101111 &"
b1001100000000000000011101111 N"
b1001100000000000000011101111 O"
b11100 2
b11100 l
b11100 b"
b100 =
b100 g
b100 +"
b10 5
b10 j
b10 ."
b10 ]"
b1111111100 F
b1111111100 e
b1111111100 )"
1N
10
1!
#40000
0!
#45000
1I
1J
11"
1:
10"
b0 ;"
b0 F"
b100000000011110010011 M"
b100000000011110010011 R"
b10011100 9
b10011100 6"
b10011100 I"
b10011100 ["
b0 3"
b0 C"
b0 }
b0 p
b0 u
b0 (
b0 Q
b0 a"
b0 _
b0 '"
b10011100 J"
b10011100 U"
b10011100 \"
b1111111100 M
b1111111100 :"
b1111111100 <"
b1111111100 g"
b1111111100 x"
b100 <
b100 ="
b100 i"
b10 4
b10 >"
b10 ^"
b10 k"
1/
1C
b11000 2
b11000 l
b11000 b"
b1000 =
b1000 g
b1000 +"
b100 ?
b100 f
b100 *"
b1 5
b1 j
b1 ."
b1 ]"
b10011000 F
b10011000 e
b10011000 )"
0N
b1100 >
b1100 Y
b1100 H"
b1100 Q"
b1000 @
b1000 Z
b1000 G"
b1000 P"
b1101111 E
b1101111 ^
b1101111 &"
b1101111 N"
b1101111 O"
b10000 K"
b10000 Y"
b10000 Z"
b1100 L"
b1100 S"
b1100 V"
b1100 W"
1!
#50000
0!
#55000
0I
0J
b11111101000000010000000100010011 M"
b11111101000000010000000100010011 R"
0\
b0 `
b0 q
b0 {
b0 %"
0U
0:
b10100000 J"
b10100000 U"
b10100000 \"
b0 n
b0 v
b0 y
b0 9
b0 6"
b0 I"
b0 ["
b1111111100 *
b1111111100 S
b1111111100 ~
b1111111100 5"
b1111111100 "#
b1111111100 %#
b10100000 K"
b10100000 Y"
b10100000 Z"
b10011100 L"
b10011100 S"
b10011100 V"
b10011100 W"
b0 >
b0 Y
b0 H"
b0 Q"
b0 @
b0 Z
b0 G"
b0 P"
b0 E
b0 ^
b0 &"
b0 N"
b0 O"
0C
b0 2
b0 l
b0 b"
b0 =
b0 g
b0 +"
b0 ?
b0 f
b0 *"
b0 5
b0 j
b0 ."
b0 ]"
b0 F
b0 e
b0 )"
00
b1000 M
b1000 :"
b1000 <"
b1000 g"
b1000 x"
b1000 <
b1000 ="
b1000 i"
b1 4
b1 >"
b1 ^"
b1 k"
b1111111100 L
b1111111100 h"
b1111111100 r"
b1111111100 }"
b1111111100 ##
b100 ;
b100 j"
b100 ~"
b100 t"
b10 6
b10 V
b10 #"
b10 d"
b10 l"
b10 u"
1.
1!
#60000
0!
#65000
b1111111100 X
b1111111100 ""
b10 r
b10 w
b10 z
1b
1U
b10000100010010011000100011 M"
b10000100010010011000100011 R"
b1000 *
b1000 S
b1000 ~
b1000 5"
b1000 "#
b1000 %#
b10000 }
b10 |
b1111110 p
b1111110 u
b10011 n
b10011 v
b10011 y
b10000 (
b10000 Q
b10000 a"
b10 )
b10 R
b10 _"
b11111111111111111111111111010000 _
b11111111111111111111111111010000 '"
b10100100 J"
b10100100 U"
b10100100 \"
b1000 L
b1000 h"
b1000 r"
b1000 }"
b1000 ##
b1000 ;
b1000 j"
b1000 ~"
b1000 t"
b1 6
b1 V
b1 #"
b1 d"
b1 l"
b1 u"
b0 M
b0 :"
b0 <"
b0 g"
b0 x"
b0 <
b0 ="
b0 i"
b0 4
b0 >"
b0 ^"
b0 k"
0/
b10100000 >
b10100000 Y
b10100000 H"
b10100000 Q"
b10011100 @
b10011100 Z
b10011100 G"
b10011100 P"
b11111101000000010000000100010011 E
b11111101000000010000000100010011 ^
b11111101000000010000000100010011 &"
b11111101000000010000000100010011 N"
b11111101000000010000000100010011 O"
b10100100 K"
b10100100 Y"
b10100100 Z"
b10100000 L"
b10100000 S"
b10100000 V"
b10100000 W"
1!
#70000
0!
#75000
b1000 W
b1000 !"
01"
07"
b10100000010010010000100011 M"
b10100000010010010000100011 R"
1[
b1 `
b1 q
b1 {
b1 %"
b0 r
b0 w
b0 z
1b
0U
b0 c
b0 s
b0 x
b1111111100 4"
b1111111100 A"
00"
b1111001100 ;"
b1111001100 F"
b10101000 J"
b10101000 U"
b10101000 \"
b1 }
b1 p
b1 u
b100011 n
b100011 v
b100011 y
b1 (
b1 Q
b1 a"
b10 P
b10 o
b10 t
b101100 _
b101100 '"
b1101100 9
b1101100 6"
b1101100 I"
b1101100 ["
b11111111111111111111111111010000 3"
b11111111111111111111111111010000 C"
b0 *
b0 S
b0 ~
b0 5"
b0 "#
b0 %#
b10101000 K"
b10101000 Y"
b10101000 Z"
b10100100 L"
b10100100 S"
b10100100 V"
b10100100 W"
b10100100 >
b10100100 Y
b10100100 H"
b10100100 Q"
b10100000 @
b10100000 Z
b10100000 G"
b10100000 P"
b10000100010010011000100011 E
b10000100010010011000100011 ^
b10000100010010011000100011 &"
b10000100010010011000100011 N"
b10000100010010011000100011 O"
b10000 2
b10000 l
b10000 b"
b10 3
b10 k
b10 `"
b10100000 =
b10100000 g
b10100000 +"
b10011100 ?
b10011100 f
b10011100 *"
b10 5
b10 j
b10 ."
b10 ]"
b11111111111111111111111111010000 F
b11111111111111111111111111010000 e
b11111111111111111111111111010000 )"
b1111111100 8
b1111111100 h
b1111111100 ,"
1N
10
b0 L
b0 h"
b0 r"
b0 }"
b0 ##
b0 ;
b0 j"
b0 ~"
b0 t"
b0 6
b0 V
b0 #"
b0 d"
b0 l"
b0 u"
0.
1!
#80000
0!
#85000
b1111001100 4"
b1111001100 A"
b10 H
b10 9"
b10 f"
b0 W
b0 !"
b1111111000 ;"
b1111111000 F"
b1000 2"
b10100100010010001000100011 M"
b10100100010010001000100011 R"
b101100 3"
b101100 C"
b11001100 9
b11001100 6"
b11001100 I"
b11001100 ["
b1000 }
b1000 (
b1000 Q
b1000 a"
b101000 _
b101000 '"
b10101100 J"
b10101100 U"
b10101100 \"
b1111001100 M
b1111001100 :"
b1111001100 <"
b1111001100 g"
b1111001100 x"
b10100000 <
b10100000 ="
b10100000 i"
b10 4
b10 >"
b10 ^"
b10 k"
1/
b10 $
b10 m
b10 /"
b1 2
b1 l
b1 b"
b10100100 =
b10100100 g
b10100100 +"
b10100000 ?
b10100000 f
b10100000 *"
b1100 5
b1100 j
b1100 ."
b1100 ]"
b101100 F
b101100 e
b101100 )"
b1000 7
b1000 i
b1000 -"
1B
00
b10101000 >
b10101000 Y
b10101000 H"
b10101000 Q"
b10100100 @
b10100100 Z
b10100100 G"
b10100100 P"
b10100000010010010000100011 E
b10100000010010010000100011 ^
b10100000010010010000100011 &"
b10100000010010010000100011 N"
b10100000010010010000100011 O"
b10101100 K"
b10101100 Y"
b10101100 Z"
b10101000 L"
b10101000 S"
b10101000 V"
b10101000 W"
1!
#90000
0!
#95000
b1 H
b1 9"
b1 f"
b1111001100 X
b1111001100 ""
b10110100000000011110010011 M"
b10110100000000011110010011 R"
b0 2"
b1111110100 ;"
b1111110100 F"
b10110000 J"
b10110000 U"
b10110000 \"
b1001 }
b1001 (
b1001 Q
b1001 a"
b100100 _
b100100 '"
b101000 3"
b101000 C"
b1111001100 4"
b1111001100 A"
b1111 w"
b1111 z"
b1111001100 *
b1111001100 S
b1111001100 ~
b1111001100 5"
b1111001100 "#
b1111001100 %#
b10110000 K"
b10110000 Y"
b10110000 Z"
b10101100 L"
b10101100 S"
b10101100 V"
b10101100 W"
b10101100 >
b10101100 Y
b10101100 H"
b10101100 Q"
b10101000 @
b10101000 Z
b10101000 G"
b10101000 P"
b10100100010010001000100011 E
b10100100010010001000100011 ^
b10100100010010001000100011 &"
b10100100010010001000100011 N"
b10100100010010001000100011 O"
b1000 2
b1000 l
b1000 b"
b10101000 =
b10101000 g
b10101000 +"
b10100100 ?
b10100100 f
b10100100 *"
b1000 5
b1000 j
b1000 ."
b1000 ]"
b101000 F
b101000 e
b101000 )"
b0 7
b0 i
b0 -"
b10 #
b10 @"
b10 o"
b1111111000 M
b1111111000 :"
b1111111000 <"
b1111111000 g"
b1111111000 x"
b1000 %
b1000 ?"
b1000 n"
b1000 y"
b10100100 <
b10100100 ="
b10100100 i"
b1100 4
b1100 >"
b1100 ^"
b1100 k"
1A
0/
b1111001100 L
b1111001100 h"
b1111001100 r"
b1111001100 }"
b1111001100 ##
b10100000 ;
b10100000 j"
b10100000 ~"
b10100000 t"
b10 6
b10 V
b10 #"
b10 d"
b10 l"
b10 u"
1.
1!
#100000
0!
#105000
b0 H
b0 9"
b0 f"
b1111001100 4"
b1111001100 A"
b1111110000 ;"
b1111110000 F"
b0 X
b0 ""
b10 r
b10 w
b10 z
1U
0[
1b
b0 `
b0 q
b0 {
b0 %"
b111100010010011000100011 M"
b111100010010011000100011 R"
b1111111000 *
b1111111000 S
b1111111000 ~
b1111111000 5"
b1111111000 "#
b1111111000 %#
b100100 3"
b100100 C"
b1101 }
b0 |
b10011 n
b10011 v
b10011 y
b1101 (
b1101 Q
b1101 a"
b0 )
b0 R
b0 _"
b0 P
b0 o
b0 t
b101101 _
b101101 '"
b10110100 J"
b10110100 U"
b10110100 \"
b1111111000 L
b1111111000 h"
b1111111000 r"
b1111111000 }"
b1111111000 ##
b10100100 ;
b10100100 j"
b10100100 ~"
b10100100 t"
b1100 6
b1100 V
b1100 #"
b1100 d"
b1100 l"
b1100 u"
0.
b1111110100 M
b1111110100 :"
b1111110100 <"
b1111110100 g"
b1111110100 x"
b0 %
b0 ?"
b0 n"
b0 y"
b10101000 <
b10101000 ="
b10101000 i"
b1000 4
b1000 >"
b1000 ^"
b1000 k"
b1001 2
b1001 l
b1001 b"
b10101100 =
b10101100 g
b10101100 +"
b10101000 ?
b10101000 f
b10101000 *"
b100 5
b100 j
b100 ."
b100 ]"
b100100 F
b100100 e
b100100 )"
b1111001100 8
b1111001100 h
b1111001100 ,"
b10110000 >
b10110000 Y
b10110000 H"
b10110000 Q"
b10101100 @
b10101100 Z
b10101100 G"
b10101100 P"
b10110100000000011110010011 E
b10110100000000011110010011 ^
b10110100000000011110010011 &"
b10110100000000011110010011 N"
b10110100000000011110010011 O"
b10110100 K"
b10110100 Y"
b10110100 Z"
b10110000 L"
b10110000 S"
b10110000 V"
b10110000 W"
1!
#110000
0!
#115000
b110000000000010010010011 M"
b110000000000010010010011 R"
b1111001100 X
b1111001100 ""
1[
b1 `
b1 q
b1 {
b1 %"
b0 r
b0 w
b0 z
1b
0U
b0 c
b0 s
b0 x
b101101 ;"
b101101 F"
b0 4"
b0 A"
b10111000 J"
b10111000 U"
b10111000 \"
b1111 }
b10 |
b0 p
b0 u
b100011 n
b100011 v
b100011 y
b1111 (
b1111 Q
b1111 a"
b10 )
b10 R
b10 _"
b10 P
b10 o
b10 t
b1100 _
b1100 '"
b101101 3"
b101101 C"
b11011001 9
b11011001 6"
b11011001 I"
b11011001 ["
b1111110100 *
b1111110100 S
b1111110100 ~
b1111110100 5"
b1111110100 "#
b1111110100 %#
b10111000 K"
b10111000 Y"
b10111000 Z"
b10110100 L"
b10110100 S"
b10110100 V"
b10110100 W"
b10110100 >
b10110100 Y
b10110100 H"
b10110100 Q"
b10110000 @
b10110000 Z
b10110000 G"
b10110000 P"
b111100010010011000100011 E
b111100010010011000100011 ^
b111100010010011000100011 &"
b111100010010011000100011 N"
b111100010010011000100011 O"
b0 $
b0 m
b0 /"
b1101 2
b1101 l
b1101 b"
b0 3
b0 k
b0 `"
b10110000 =
b10110000 g
b10110000 +"
b10101100 ?
b10101100 f
b10101100 *"
b1111 5
b1111 j
b1111 ."
b1111 ]"
b101101 F
b101101 e
b101101 )"
b0 8
b0 h
b0 ,"
0B
10
b1111110000 M
b1111110000 :"
b1111110000 <"
b1111110000 g"
b1111110000 x"
b10101100 <
b10101100 ="
b10101100 i"
b100 4
b100 >"
b100 ^"
b100 k"
b1111110100 L
b1111110100 h"
b1111110100 r"
b1111110100 }"
b1111110100 ##
b10101000 ;
b10101000 j"
b10101000 ~"
b10101000 t"
b1000 6
b1000 V
b1000 #"
b1000 d"
b1000 l"
b1000 u"
1!
#120000
0!
#125000
b101101 2"
b10 G
b10 8"
b10 e"
b1111011000 ;"
b1111011000 F"
b1111001100 4"
b1111001100 A"
b0 X
b0 ""
b10 r
b10 w
b10 z
1U
0[
1b
b0 `
b0 q
b0 {
b0 %"
b100100010010100000100011 M"
b100100010010100000100011 R"
b1111110000 *
b1111110000 S
b1111110000 ~
b1111110000 5"
b1111110000 "#
b1111110000 %#
b1 p"
b0 w"
b0 z"
b1100 3"
b1100 C"
b10111100 9
b10111100 6"
b10111100 I"
b10111100 ["
b1100 }
b0 |
b10011 n
b10011 v
b10011 y
b1100 (
b1100 Q
b1100 a"
b0 )
b0 R
b0 _"
b0 P
b0 o
b0 t
b1100 _
b1100 '"
b10111100 J"
b10111100 U"
b10111100 \"
b1111110000 L
b1111110000 h"
b1111110000 r"
b1111110000 }"
b1111110000 ##
b10101100 ;
b10101100 j"
b10101100 ~"
b10101100 t"
b100 6
b100 V
b100 #"
b100 d"
b100 l"
b100 u"
b0 #
b0 @"
b0 o"
b101101 M
b101101 :"
b101101 <"
b101101 g"
b101101 x"
b10110000 <
b10110000 ="
b10110000 i"
b1111 4
b1111 >"
b1111 ^"
b1111 k"
0A
1/
b10 $
b10 m
b10 /"
b1111 2
b1111 l
b1111 b"
b10 3
b10 k
b10 `"
b10110100 =
b10110100 g
b10110100 +"
b10110000 ?
b10110000 f
b10110000 *"
b1100 5
b1100 j
b1100 ."
b1100 ]"
b1100 F
b1100 e
b1100 )"
b1111001100 8
b1111001100 h
b1111001100 ,"
1B
00
b10111000 >
b10111000 Y
b10111000 H"
b10111000 Q"
b10110100 @
b10110100 Z
b10110100 G"
b10110100 P"
b110000000000010010010011 E
b110000000000010010010011 ^
b110000000000010010010011 &"
b110000000000010010010011 N"
b110000000000010010010011 O"
b10111100 K"
b10111100 Y"
b10111100 Z"
b10111000 L"
b10111000 S"
b10111000 V"
b10111000 W"
1!
#130000
0!
